character_id,birth_month,birth_day
1,4,9
2,5,15
3,5,30
4,6,11
5,6,12
6,11,25
7,10,18
8,12,16
9,10,10
10,4,24
11,1,1
12,3,23
13,1,21
14,10,14
15,9,2
16,2,22
17,10,18
18,1,6
19,2,14
20,7,7
21,11,11
22,9,19
23,5,29
24,4,10
25,9,16
26,11,25
27,4,8
28,6,7
29,9,28
30,12,12
31,8,10
32,3,28
33,6,14
34,6,30
35,7,31
36,7,27
37,7,1
38,9,5
39,9,1
40,4,15
41,4,14
42,6,3
43,5,7
44,3,7
45,8,19
46,11,12
47,7,30
48,6,27
49,7,25
50,12,8
51,6,29
52,8,4
53,9,14
54,6,6
55,3,13
56,12,1
57,9,1
58,7,20
59,8,30
60,9,7
61,10,1
62,1,13
63,10,27
64,1,21
65,8,10
66,1,23
67,2,3
68,8,26
69,9,20
70,1,19
71,12,18
72,2,26
73,7,10
74,2,8
75,3,9
76,8,7
77,4,19
78,4,6
79,8,27
80,4,8
81,12,2
82,2,25
83,10,3
84,8,27
85,11,14
86,12,16
87,11,7
88,1,3
89,3,3
90,5,9
91,6,15
92,7,3
93,5,1
94,7,17
95,5,21
96,7,16
97,3,5
98,8,1
99,4,27
100,11,19
101,11,11
102,7,1
103,6,25
104,3,27
105,5,2
106,8,24
107,2,7
108,8,18
109,10,30
110,12,5
111,11,17
112,8,27
113,8,17
114,6,20
115,11,3
116,10,26
117,10,14
118,9,29
119,4,7
120,10,6
121,7,13
122,7,20
123,2,17
124,12,28
125,3,6
126,5,8
127,4,27
128,3,20
129,4,12
130,10,9
131,12,29
132,11,22
133,8,8
134,8,17
135,9,9
136,1,28
137,5,8
138,8,1
139,8,15
140,3,18
141,9,13
142,3,30
143,5,18
144,1,6
145,4,8
146,7,23
147,7,22
148,5,12
149,2,24
150,2,19
151,4,1
152,1,10
153,3,21
154,5,6
155,10,11
156,1,3
157,8,28
158,4,18
159,3,19
160,11,13
161,3,25
162,5,25
163,2,11
164,3,16
165,8,3
166,10,23
167,5,4
168,12,25
169,12,24
170,9,19
171,9,24
172,6,9
173,2,14
174,2,6
175,1,1
176,12,25
177,12,29
178,6,10
179,11,6
180,7,7
181,6,4
182,4,4
183,9,26
